{
	"E:\\xampp\\htdocs\\qbit-app\\node_modules\\kinvey-nativescript-sdk\\platforms\\android\\AndroidManifest.default.xml": "cce475b64081265624987342c6d91c2a891a49dc",
	"E:\\xampp\\htdocs\\qbit-app\\node_modules\\kinvey-nativescript-sdk\\platforms\\android\\AndroidManifest.mic.xml": "e737daf7c176fccaaef98265e11610e876b4a328",
	"E:\\xampp\\htdocs\\qbit-app\\node_modules\\kinvey-nativescript-sdk\\platforms\\android\\AndroidManifest.xml": "cce475b64081265624987342c6d91c2a891a49dc",
	"E:\\xampp\\htdocs\\qbit-app\\node_modules\\kinvey-nativescript-sdk\\platforms\\android\\include.gradle": "0c9b3c2cbdf0c2e5b325310744bdc30a7dd8e7aa"
}