[
    {
        "name": "@nativescript/core",
        "directory": "..\\..\\node_modules\\@nativescript\\core"
    },
    {
        "name": "@nativescript/theme",
        "directory": "..\\..\\node_modules\\@nativescript\\theme"
    },
    {
        "name": "@progress-nativechat/nativescript-nativechat",
        "directory": "..\\..\\node_modules\\@progress-nativechat\\nativescript-nativechat"
    },
    {
        "name": "kinvey-nativescript-sdk",
        "directory": "..\\..\\node_modules\\kinvey-nativescript-sdk"
    },
    {
        "name": "nativescript-accelerometer",
        "directory": "..\\..\\node_modules\\nativescript-accelerometer"
    },
    {
        "name": "nativescript-background-http",
        "directory": "..\\..\\node_modules\\nativescript-background-http"
    },
    {
        "name": "nativescript-camera",
        "directory": "..\\..\\node_modules\\nativescript-camera"
    },
    {
        "name": "nativescript-image",
        "directory": "..\\..\\node_modules\\nativescript-image"
    },
    {
        "name": "nativescript-geolocation",
        "directory": "..\\..\\node_modules\\nativescript-geolocation"
    },
    {
        "name": "nativescript-imagepicker",
        "directory": "..\\..\\node_modules\\nativescript-imagepicker"
    },
    {
        "name": "nativescript-intl",
        "directory": "..\\..\\node_modules\\nativescript-intl"
    },
    {
        "name": "nativescript-iqkeyboardmanager",
        "directory": "..\\..\\node_modules\\nativescript-iqkeyboardmanager"
    },
    {
        "name": "nativescript-social-share",
        "directory": "..\\..\\node_modules\\nativescript-social-share"
    },
    {
        "name": "nativescript-theme-core",
        "directory": "..\\..\\node_modules\\nativescript-theme-core"
    },
    {
        "name": "nativescript-ui-autocomplete",
        "directory": "..\\..\\node_modules\\nativescript-ui-autocomplete"
    },
    {
        "name": "nativescript-ui-calendar",
        "directory": "..\\..\\node_modules\\nativescript-ui-calendar"
    },
    {
        "name": "nativescript-ui-chart",
        "directory": "..\\..\\node_modules\\nativescript-ui-chart"
    },
    {
        "name": "nativescript-ui-dataform",
        "directory": "..\\..\\node_modules\\nativescript-ui-dataform"
    },
    {
        "name": "nativescript-ui-gauge",
        "directory": "..\\..\\node_modules\\nativescript-ui-gauge"
    },
    {
        "name": "nativescript-ui-listview",
        "directory": "..\\..\\node_modules\\nativescript-ui-listview"
    },
    {
        "name": "nativescript-ui-sidedrawer",
        "directory": "..\\..\\node_modules\\nativescript-ui-sidedrawer"
    },
    {
        "name": "nativescript-vue",
        "directory": "..\\..\\node_modules\\nativescript-vue"
    },
    {
        "name": "tns-core-modules",
        "directory": "..\\..\\node_modules\\tns-core-modules"
    },
    {
        "name": "tns-core-modules-widgets",
        "directory": "..\\..\\node_modules\\tns-core-modules-widgets"
    },
    {
        "name": "nativescript-secure-storage",
        "directory": "..\\..\\node_modules\\nativescript-secure-storage"
    },
    {
        "name": "nativescript-sqlite",
        "directory": "..\\..\\node_modules\\nativescript-sqlite"
    },
    {
        "name": "nativescript-urlhandler",
        "directory": "..\\..\\node_modules\\nativescript-urlhandler"
    },
    {
        "name": "nativescript-permissions",
        "directory": "..\\..\\node_modules\\nativescript-permissions"
    },
    {
        "name": "nativescript-ui-core",
        "directory": "..\\..\\node_modules\\nativescript-ui-core"
    }
]